[{
        "header": "XtutorialRDOK.io - open source XR toolkit",
        "Tag": ["web", "xr", "guide", "tutorial"],
        "Description": "XRDOC is an upcoming tutorial series and open source XR toolkit for CGI-based content production by vragments.com the berlin-based startup creating getfader.com.",
        "Link": [{ "name": "xrdok.io", "url": "https://www.xrdok.io/" }]
    },
    {
        "header": "Reddit.com Comunity Groups - WebXR + WebVR",
        "Tag": ["web", "portal", "guide", "tutorial"],
        "Description": "Well, its Reddit :-) A home to thousands of communities, endless conversation, and authentic human connection. Whether you're into breaking news, sports, TV fan theories, or a never-ending stream of the internet's cutest animals, there's a community on Reddit for you.",
        "Link": [{ "name": "reddit.com/...", "url": "https://www.reddit.com/search?q=WebxR" }]
    },
    {
        "header": "Issuu.com publications",
        "Tag": ["portal", "guide", "tutorial"],
        "Description": "Kind of random but interesting PDF publications on issuu.com. Worth a try and do not forget to playing with the keywords.",
        "Link": [{ "name": "issuu.com/...", "url": "https://issuu.com/search?q=virtual%20reality" }]
    },
    {
        "header": "JOURNEY THROUGH VR AND AR WITH REACT by Tomasz Łakomy",
        "Tag": ["web", "talk", "xr", "guide", "video"],
        "Description": "Writing 3D applications for the browser is possible since some years due to the WebGL API. But since Virtual Reality and Augmented Reality are getting more popular, web developers and designers now have a serious reason to get to know the 3D web, its APIs and design patterns. In this talk you will learn how to create 3D applications in the browser, using the WebGL and the WebVR API, and popular libraries, like A-Frame and ReactVR. You will also see what is necessary to create a Virtual Reality app that runs on common VR devices, and how to create Augmented Reality applications for Android and iOS phones. Since 3D user interfaces and interactions in the browser are relatively new for designers and users, there are no established UX design patterns yet, but you will get to know best-practices and see some tips for improving the usability of your 3d application. The talk ends with my advice on how to create responsible applications, that won’t harm your users – neither physically nor psychologically.",
        "Link": [{ "name": "youtu.be/...", "url": "https://youtu.be/3htVprUe4xE" }]
    },
    {
        "header": "Writung VR and AR WebApps by Michaela Lehr on You Gotta Love Frontend",
        "Tag": ["web", "talk", "xr", "guide", "video"],
        "Description": "An multiplayer walkable VR game experiance as real-time Holodeck. The custom Triple-TrackTM Software fuses tracking and motion capture with real-time rendering. Aside from features like positional tracking from room to room for an unlimited number of players and low latency, the Immersive Deck includes optical hand- and finger tracking for best haptic interaction. Additional effects like wind, heat, smell, vibration and real objects are included.",
        "Link": [{ "name": "youtu.be/...", "url": "https://youtu.be/g8D4X-M3ZwM" }]
    }

]