[{
        "Object": "XtutorialRDOK.io - open source XR toolkit",
        "Tag": ["web", "xr", "guide", "tutorial"],
        "Description": "XRDOC is an upcoming tutorial series and open source XR toolkit for CGI-based content production by vragments.com the berlin-based startup creating getfader.com.",
        "Link": "https://www.xrdok.io/"
    },
    {
        "Object": "Reddit.com Comunity Groups - WebXR + WebVR",
        "Tag": ["web", "portal", "guide", "tutorial"],
        "Description": "Well, its Reddit :-) A home to thousands of communities, endless conversation, and authentic human connection. Whether you're into breaking news, sports, TV fan theories, or a never-ending stream of the internet's cutest animals, there's a community on Reddit for you.",
        "Link": "https://www.reddit.com/search?q=WebxR"
    },
    {
        "Object": "Issuu.com publications",
        "Tag": ["portal", "guide", "tutorial"],
        "Description": "Kind of random but interesting PDF publications on issuu.com. Worth a try and do not forget to playing with the keywords.",
        "Link": "https://issuu.com/search?q=virtual%20reality"
    },
    {
        "Object": "JOURNEY THROUGH VR AND AR WITH REACT by Tomasz Łakomy",
        "Tag": ["web", "talk", "xr", "guide", "video"],
        "Description": "Writing 3D applications for the browser is possible since some years due to the WebGL API. But since Virtual Reality and Augmented Reality are getting more popular, web developers and designers now have a serious reason to get to know the 3D web, its APIs and design patterns. In this talk you will learn how to create 3D applications in the browser, using the WebGL and the WebVR API, and popular libraries, like A-Frame and ReactVR. You will also see what is necessary to create a Virtual Reality app that runs on common VR devices, and how to create Augmented Reality applications for Android and iOS phones. Since 3D user interfaces and interactions in the browser are relatively new for designers and users, there are no established UX design patterns yet, but you will get to know best-practices and see some tips for improving the usability of your 3d application. The talk ends with my advice on how to create responsible applications, that won’t harm your users – neither physically nor psychologically.",
        "Link": "https://youtu.be/3htVprUe4xE"
    },
    {
        "Object": "Writung VR and AR WebApps by Michaela Lehr on You Gotta Love Frontend",
        "Tag": ["web", "talk", "xr", "guide", "video"],
        "Description": "An multiplayer walkable VR game experiance as real-time Holodeck. The custom Triple-TrackTM Software fuses tracking and motion capture with real-time rendering. Aside from features like positional tracking from room to room for an unlimited number of players and low latency, the Immersive Deck includes optical hand- and finger tracking for best haptic interaction. Additional effects like wind, heat, smell, vibration and real objects are included.",
        "Link": "https://youtu.be/g8D4X-M3ZwM"
    },
    {
        "Object": "Time Warp Corporation - location based multiplayer holodeck experiance in Berlin",
        "Tag": ["usecase", "vr", "game", "demo"],
        "Description": "An multiplayer walkable VR game experiance as real-time Holodeck. The custom Triple-TrackTM Software fuses tracking and motion capture with real-time rendering. Aside from features like positional tracking from room to room for an unlimited number of players and low latency, the Immersive Deck includes optical hand- and finger tracking for best haptic interaction. Additional effects like wind, heat, smell, vibration and real objects are included.",
        "Link": "https://www.time-warp-corporation.com/"
    },
    {
        "Object": "HMD comparison - short but detailed",
        "Tag": ["guide", "usecase", "hardware", "HMD"],
        "Description": "A detailed and by data and experiance opinionated comparison to headsets by Delight VR a commercial web 360 video tech platform.",
        "Link": "https://delight-vr.com/blog/best-vr-headsets-2017-2018/"
    },
    {
        "Object": "Oculus Quill as animation prototyping tool in VR for VR and AR",
        "Tag": ["tutorial", "guide", "usecase", "creation"],
        "Description": "Detailed best practices video for animation techniques in the free VR tool Oculus Quill by Goro Fujita a 3D/VR artisst.",
        "Link": "https://www.youtube.com/watch?v=MuUUgxsZ9tk"
    },
    {
        "Object": "low budget photogrammetry by mobile phone camera and free software",
        "Tag": ["tutorial", "guide", "usecase", "creation"],
        "Description": "As photogrammetry is the future of easy and instant 3D content creation this 3D scanning is beside of expensive high quality hard an software also possible in lower resolution and for free: details and full tutorial on: https://www.prusaprinters.org/photogrammetry-3d-scanning-just-phone-camera/",
        "Link": "https://www.youtube.com/watch?v=ye-C-OOFsX8"
    },
    {
        "Object": "BrioVR - codeless VR presentation web portal",
        "Tag": ["portal", "web", "usecase", "vr", "china", "demo", "creation"],
        "Description": "Brio a WebXR is kind of a browser powerpoint for creating and sharing presentations by link. in WYSIWYG style no coding is required to arrange assets like mashes pictures or sound. Animate them and create a seamless presentation.",
        "Link": "https://briovr.com/"
    },
    {
        "Object": "free Tooll2 for 3d content and animations",
        "Tag": ["usecase", "vr", "game", "demo", "creation"],
        "Description": "Tooll2 is combining the best of animation, compositing, and coding into a lightweight and intuitive UI. Created scenes can be executable or rendered to movies but generating shader and C# code may me exported for engine like Unity and Unreal. Basically it is a all-in-one demoscene prototyping swiss-army-knife for creating beautiful graphik experinments you may remember from early computer graphic demos on a C64 or Amiga.",
        "Link": "http://tooll.io/"
    },
    {
        "Object": "Rec Room - free multiuser experiance",
        "Tag": ["usecase", "vr", "game", "demo"],
        "Description": "Being one of the first and meanwhile most advanced + feature rich experiance in VR Rec Room by Against Gravity is a must see and learn! Rec Room is the best place to hang out with friends from all around the world! Play multiplayer games like Paintball, or just chill in the park. Discover thousands of player-created rooms, with new ones added daily. Or build your own rooms with friends. It's cross platform and free, so come and join the fun!",
        "Link": "https://store.steampowered.com/app/471710/Rec_Room"
    },
    {
        "Object": "best practices for creating 3D 180 video - talk on Oculus Connect 5",
        "Tag": ["tutorial", "guide", "usecase", "360", "video", "creation"],
        "Description": "Bringing great-looking video experiences to VR can be challenging, and container apps are only half the battle. 3D-180 video allows for higher-quality stereoscopic experiences with fewer resources spent on production. We’ll cover best practices for creating 3D-180 video for distribution and playback in Oculus Go through a live workshop. During discussion about camera hardware, software tools, real-world differences between 180 and 360, and spatial audio, we will actually shoot, edit, and distribute a short video for viewing in Oculus Go.",
        "Link": "https://www.youtube.com/watch?v=q6uFuGfZPU0"
    },
    {
        "Object": "HSB Akedemie - Augmented / Virtual Reality Marketing ManagerIn (IHK) - German",
        "Tag": ["tutorial", "guide", "usecase", "demo"],
        "Description": "Mit dem Kurs Augmented / Virtual Reality Marketing Manager/-in (IHK) haben Sie den Einstieg in die nächste Entwicklungsstufe der digitalen Anwendung – beginnend mit Basiswissen zur Augmented und Virtual Reality bis hin zum erfolgreichen Projektmanagement. Sie erhalten Impulse für den Einsatz von AR/VR in der Praxis und agieren als Schnittstelle zwischen Geschäftsführung, Marketing sowie Agenturen für die technische Umsetzung.",
        "Link": "https://www.ar-vr-manager.de/"
    },
    {
        "Object": "ESMT Berlin with a 360-degree",
        "Tag": ["tutorial", "guide", "360", "video", "creation"],
        "Description": "ESMT Berlin with a 360-degree was one of the first-movers in the education industry to use virtual reality to bring the school to you.",
        "Link": "https://www.esmt.org/esmt.berlin/vr"
    },
    {
        "Object": "Texture Haven - free 8k PBR textures",
        "Tag": ["portal", "assets"],
        "Description": "Texture Haven is a portal for high quality free (CC0 public domain) PBR textures. All textures are 8k and free to download in 6 seperated maps: AO, Diffuse, Displacement, Normal, Roughness, Specular. The portal content is provided by Rob Tuytel, technically run by Greg Zaal and alive by support on Patreon. The Portal is officially linked with HDRIHaven.com run by Greg Zaal.",
        "Link": "https://texturehaven.com/"
    },
    {
        "Object": "HDRI Haven - free 16k 360 unclipped HsdfDRI",
        "Tag": ["360", "portal", "assets"],
        "Description": "HDRI Haven is a portal for high quality 360 free (CC0 public domain) HDRIs. All images are unclipped in full HDR free to download in 5 sizes (1k, 2k, 4k, 8k, 16k). The portal is build by Greg Zaal a CG artist and Open Source advocate and alive by support on Patreon. The Portal is officially linked with TextureHaven.com also technically run by Greg Zaal but content is provided by Rob Tuytel.",
        "Link": "https://hdrihaven.com/"
    },
    {
        "Object": "Sketchup.com 3D Warehouse - 3D asset portal",
        "Tag": ["web", "portal", "assets"],
        "Description": "The 3D Warehouse is intended to be an (in Sketchup created) 3D asset portal for Sketchup.com a commercial/free web based 3D modellig software. Models are mainly for Interior Design, Architectural Visualisation, Landscape Design and in .SKP +  Collada.zip for free download.",
        "Link": "https://3dwarehouse.sketchup.com/"
    },
    {
        "Object": "Sketchfab.com - 3D asset portal",
        "Tag": ["web", "portal", "assets"],
        "Description": "It is a portal for 3D creators to share 3D assets for free on the web. The outstanding feature is a free V-Ray server cloud renderer and browser based scene editor if you can't use Blender & co. Check: https://www.youtube.com/watch?v=EVrgouqlPTM",
        "Link": "https://clara.io/"
    },
    {
        "Object": "Sketchfab - 3D asset portal",
        "Tag": ["web", "portal", "assets"],
        "Description": "Is a community portal for 3D creators to showcase 3D assets on the web including a store to sell or give away for free.",
        "Link": "https://sketchfab.com/"
    },
    {
        "Object": "Turbosquid.com - 3D asset portal",
        "Tag": ["web", "portal", "assets"],
        "Description": "Is a 3D asset portal to showcase 3D assets on the web including a store to sell or give away for free.",
        "Link": "https://www.turbosquid.com/Search/"
    },
    {
        "Object": "Archive3D.net - 3D asset portal",
        "Tag": ["web", "portal", "assets"],
        "Description": "Portal for free 3D models. Models are intended for Interior Design, Architectural Visualisation, Landscape Design and in .GSM + .3DS for free download.",
        "Link": "https://archive3d.net/"
    },
    {
        "Object": "20+ years NASA VR astronaut training",
        "Tag": ["usecase", "tutorial", "demo"],
        "Description": "NASA shows the world its 20-year virtual reality experiment to train astronauts. NASA's Johnson Space Center told TechRepublic the whole story behind one of the most important tools it uses to train astronauts: virtual reality. Learn how the agency pulled off VR's greatest triumph.",
        "Link": "https://www.techrepublic.com/article/nasa-shows-the-world-its-20-year-vr-experiment-to-train-astronauts/"
    },
    {
        "Object": "Spatial Computing - Talk (german)",
        "Tag": ["term", "guide", "video"],
        "Description": "Vortrag (28min) über Spatial Computing und die VR & AR Grundlagen für eine neue Computer-Ära von Luca Caracciolo (T3N Magazin) auf der re:publica 2018.",
        "Link": "https://www.techrepublic.com/article/nasa-shows-the-world-its-20-year-vr-experiment-to-train-astronauts/"
    },
    {
        "Object": "XR: Cross Reality",
        "Tag": ["term"],
        "Description": "Cross Reality which mean to use one hardware for any Immersive Medium (AR + VR + MR + ...). First real hardware may be the Tango Mobiles.",
        "Link": "https://www.lenovo.com/us/en/faqs/pc-life-faqs/what-is-ar-vr-mr-tango-technology-differences/"
    },
    {
        "Object": "Magic Window",
        "Tag": ["term"],
        "Description": "Through mobile devices like smartphones and tablets, Augmented Reality acts like a magic window; through the viewer you can see holograms and manipulate 3D models. Hundreds of Augmented Reality apps are available on iPhone, iPad, and Android. This may be more a fallback technique for display AR when an apropriate HMD is not available.",
        "Link": "https://www.augment.com/how-augmented-reality-works/"
    },
    {
        "Object": "Immersive Media",
        "Tag": ["term"],
        "Description": "Immersive Media means virtual world experiences. This covers entire virtual reality (VR) experiences surfaced on any hardware and platform in VR enabled headsets like Google's Daydream, Oculus Rift, Samsung Gear VR, HTC Vive, and Windows Mixed Reality Headsets, as well as augmented reality experiences developed for AR-enabled mobile devices.  If it is Immersive Web the experiance is hosted through the browser. Read more on: https://en.wikipedia.org/wiki/Immersion_(virtual_reality)",
        "Link": "https://developers.google.com/web/updates/2018/05/welcome-to-immersive"
    },
    {
        "Object": "XR: eXtended Reality or Cross Reality",
        "Tag": ["term"],
        "Description": "A trend is to define any content using any immersive technologies as XR for eXtended Reality for combining aspects of AR, MR and VR such as Google Tango have one HMD for all usecases. As hardware matures to incorporate more than one immersive reality technolog or immersive computing. It’s still important that industry give the differences between each acronym to avoid confusion amongst the consumer audiences. Also differ from Cross Reality which mean to use one hardware for any Immersive Medium (AR + VR + MR + ...). Read more: https://en.wikipedia.org/wiki/X_Reality_(XR)",
        "Link": "https://www.recode.net/2017/7/21/16006726/vr-ar-virtual-augmented-reality-clay-bavor-google-cardboard-kara-swisher-lauren-goode-recode-podcast"
    },
    {
        "Object": "webXR Berlin Meetup",
        "Tag": ["tutorial", "guide", "web", "meetup", "aframe", "demo"],
        "Description": "Local meetup I support here in Berlin. It is fresh rebooted by the Fader team Vragments.",
        "Link": "http://webxr-berlin.de/"
    },
    {
        "Object": "Fader – 360 video and image portal",
        "Tag": ["portal", "usecase", "360", "demo", "creation"],
        "Description": "Add photos and videos in your browser to a linked scenes story, enhance with sound, text or interactive hotspots. Present your favorite place immersevly in the browser on any VR device. Create interactive multimedia stories with panoramic view. And embed them wherever you like.",
        "Link": "https://getfader.com/"
    },
    {
        "Object": "Firefox Reality Developers Guide",
        "Tag": ["tutorial", "guide", "ux", "web", "aframe", "creation"],
        "Description": "Firefox Reality, Mozilla's VR web browser, is released! So let's see how to make experiences work well in this new browser.",
        "Link": "https://blog.mozvr.com/firefox-reality-developers-guide/"
    },
    {
        "Object": "Interaction Design Foundation course: Design for AR and VR ",
        "Tag": ["tutorial", "guide", "ux", "video", "creation"],
        "Description": "Paid video course by Interaction Design Foundation: How to Design for Augmented and Virtual Reality. Including: How to design for AR and VR from novel and unique perspectives. The three keys to designing for this new medium: Storytelling, Imagineering, and Improvisation. How to enhance immersion in order to improve your users’ experience. How to create 3D personas to improve spatial navigation, layout, and content. How to incorporate the brain’s responses to 3D interfaces by taking visual, auditory, and kinesthetic interactions into account. Practical tips to avoid known UX problems when designing for AR and VR",
        "Link": "https://www.interaction-design.org/courses/how-to-design-for-augmented-and-virtual-reality"
    },
    {
        "Object": "WebXR A-Frame project coding guides",
        "Tag": ["demo", "web", "code", "aframe", "creation"],
        "Description": "Several WebXR A-Frame step by step project coding guides by the Mozilla A-Frame and Supermedium team on git. Including: basic scene setup, 360 image gallery, minecraft demo, building with magicavoxel.",
        "Link": "https://github.com/aframevr/aframe/tree/master/docs/guides"
    },
    {
        "Object": "WebXR A-Frame Glitch Demos as boilerplate for remixing",
        "Tag": ["demo", "web", "code", "aframe", "demo", "creation"],
        "Description": "Test, explore and use a growing number of WebXR A-Frame Glitch Demos for own remixes. Perfect starting point for own experiments right in the free browser glitch code editor.",
        "Link": "https://glitch.com/@aframe"
    },
    {
        "Object": "A-Frame School - An interactive course for WebVR",
        "Tag": ["tutorial", "guide", "aframe", "web", "creation"],
        "Description": "Visual step by step lessons as webbased introduction for WebXR giving examples and tool to start using A-Frame by the A-Frame team.",
        "Link": "https://aframe.io/aframe-school/"
    },
    {
        "Object": "Video: WebVR creation curriculum by Mozillan Marinacci gives with A-Frame",
        "Tag": ["tutorial", "guide", "software", "web", "aframe"],
        "Description": "Mozilla Mixed Reality Developer Advocate Josh Marinacci walks through his self-paced WebVR creation curriculum that uses A-Frame, a JavaScript framework you can use to begin building immersive online experiences and scenes in your browser. Includes a deep dive into Basic Geometry, Basic Audio, Basic Lighting, 360 Images, 3D Models, Physics. More is comming...",
        "Link": "https://github.com/joshmarinacci/webxr-workshops"
    },
    {
        "Object": "Google VR Developers Portal Daydream + Cardboard.",
        "Tag": ["portal", "guide", "tutorial", "api", "creation"],
        "Description": "Google gives general resources about VR and specific knowledge about development for it's two mobile VR platforms, Daydream and Cardboard. Possible platforms may are Android, Unity, Unreal and iOS. So you get all resources you need to get started: Download your chosen SDK. Guides to build your first app. APIs gets to deeply know all about Google VR. Forums to connect, ask and discuss all issues. ",
        "Link": "https://developers.google.com/vr/"
    },
    {
        "Object": "Amazon Sumerian WebXR Engine",
        "Tag": ["portal", "guide", "tutorial", "api", "web", "usecase", "demo", "creation"],
        "Description": "Amazon Sumerian lets you create and run virtual reality (VR), augmented reality (AR), and 3D applications quickly and easily without requiring any specialized programming or 3D graphics expertise. You can build immersive and interactive scenes that run on popular HMDs as well as Android and iOS mobile devices. Sumerian does not require specialized expertise and you can design and experience scenes directly from your browser.",
        "Link": "https://aws.amazon.com/de/sumerian/"
    },
    {
        "Object": "Tom's Guide Best 360 Cams 2018",
        "Tag": ["portal", "guide", "usecase", "hardware", "360", "creation"],
        "Description": "Tom's Guide tests and picks best 360 Cameras in 2018 in te three classes overall, budget and outdoors.",
        "Link": "https://www.tomsguide.com/us/best-360-cameras,review-3737.html"
    },
    {
        "Object": "STYLY - chinese web vr portal",
        "Tag": ["portal", "web", "usecase", "vr", "china", "demo", "creation"],
        "Description": "STYLY is a chinese web portal for browser based codefree creating vr experiences. STYLY import assets from Sketchfab, 3D Warehouse, Unity Asset Store, YouTube, SoundCloud, MAYA, blender, SketchUp and even Google Tilt Brush / Blocks. It supports now HTC VIVE but Oculus rift, Gear VR and Google Daydream are comming.",
        "Link": "https://styly.cc/"
    },
    {
        "Object": "Google AR Guidelines",
        "Tag": ["tutorial", "guide", "usecase", "ar", "creation"],
        "Description": "General guidelines by Google for AR including an Introduction to AR & ARCore. Including: real-world and augmented environment, user movement and comfort in AR to reduce frustration, initialization and adding virtual assets, Plane discovery, Optimal placement range, best practice in interacting with virtual AR assets (by selection, translation, rotation, scaling, gestures & proximity), general designing the experience, UI components for achieving realism.",
        "Link": "https://designguidelines.withgoogle.com/ar-design/"
    },
    {
        "Object": "HMD: Head mounted display",
        "Tag": ["hardware", "term"],
        "Description": "This is probably one of the most common terms you're bound to run into in hearing or reading about virtual reality, especially because for the most part, HMDs are the current form of hardware delivering VR experiences to users. It's typically goggles or a helmet of some type, the kind you strap to your face or put on your head. That's where you're viewing the VR experience. Some have sensors for head tracking, some don't. Examples are the ",
        "Link": "https://www.techrepublic.com/article/mini-glossary-virtual-reality-terms-you-should-know/"
    },
    {
        "Object": "Head tracking",
        "Tag": ["term", "technical", "physical", "hardware"],
        "Description": "Speaking of head tracking, this term refers to the sensors that keep up with the movement of the user's head and move the images being displayed so that they match the position of the head. In short, if you're wearing an Oculus Rift, for example, head tracking is what lets you look to the left, right, up, or down, and see the world that's been built in those directions.",
        "Link": "https://www.techrepublic.com/article/mini-glossary-virtual-reality-terms-you-should-know/"
    },
    {
        "Object": "Eye tracking",
        "Tag": ["term", "technical", "physical", "hardware"],
        "Description": "Eyetracking is similar to headtracking, but instead reads the position of the users' eyes versus their head. So for example, there's an HMD (you learned this earlier!) called FOVE that integrates eye tracking into their headset. In their demo, the user can aim a weapon (it looks like a laser) by looking in a different direction. Alternatively, a game like Rocket Toss relies on the user aiming with his or her head to determine the direction of rings.",
        "Link": "https://www.techrepublic.com/article/mini-glossary-virtual-reality-terms-you-should-know/"
    },
    {
        "Object": "FOV: Field of view",
        "Tag": ["term", "technical", "hardware"],
        "Description": "Field of view is the angle of degrees in a visual field. Having a higher field of view is important because it contributes to the user having a feeling of immersion in a VR experience. The viewing angle for a healthy human eye is about 200 degrees. So, the bigger that angle is, the more immersive it feels.",
        "Link": "https://www.techrepublic.com/article/mini-glossary-virtual-reality-terms-you-should-know/"
    },
    {
        "Object": "Latency",
        "Tag": ["term", "technical", "hardware"],
        "Description": "If you've ever tried a VR experience and noticed that when you turn your head, the visuals don't quite keep up, that's latency. It's unpleasant, because that's not something that happens in the real world. That lag is an oft-cited complaint about VR experiences that aren't up to par for a variety of reasons.",
        "Link": "https://www.techrepublic.com/article/mini-glossary-virtual-reality-terms-you-should-know/"
    },
    {
        "Object": "Simulator sickness",
        "Tag": ["term", "impairment", "physical"],
        "Description": "Simulator sickness is a conflict of sorts between what your brain and body think they're doing. Your eyes say, 'We're moving!? And your brain says 'Nope! Let's get nauseated!' Science Magazine http://science.sciencemag.org/content/197/4302/493 suggests that this disparity is interpreted as a toxin, and the human body does what it can to get that toxin out, ergo, vomiting. As much as people look at virtual reality and want to do things like fly or jump, for many folks, it's the beginning of a bad idea. But, as everyone has different thresholds, not everyone gets sick, or as sick as someone else might. This is one of the big challenges for developers ' figuring out how to move people without making them ill.",
        "Link": "https://www.techrepublic.com/article/mini-glossary-virtual-reality-terms-you-should-know/"
    },
    {
        "Object": "Judder",
        "Tag": ["term", "impairment", "hardware"],
        "Description": "Outside of virtual reality, judder is a significant shaking. But as for VR, Oculus' CTO Michael Abrash defined it like this in a blog post http://blogs.valvesoftware.com/abrash/why-virtual-isnt-real-to-your-brain-judder/ from 2013 when he was still at Valve Software: 'a combination of smearing and strobing that's especially pronounced on VR/AR HMDs.'",
        "Link": "https://www.techrepublic.com/article/mini-glossary-virtual-reality-terms-you-should-know/"
    },
    {
        "Object": "Refresh rate",
        "Tag": ["term", "technical", "hardware"],
        "Description": "If you're looking at a television, or, in this case, a virtual reality experience, you're looking at a series of images. The refresh rate is how fast those images get updated. Higher refresh rates cut down on lag, and cutting down on lag means there's less of a chance of getting sick. It also means more responsive experiences. You definitely want to be north of 60 frames per second.",
        "Link": "https://www.techrepublic.com/article/mini-glossary-virtual-reality-terms-you-should-know/"
    },
    {
        "Object": "Haptics",
        "Tag": ["term", "physical", "hardware"],
        "Description": "Here's another word that's not exclusive to virtual reality, but still gets play. It's tactile feedback. In VR, that would mean users feeling like they're touching something that's not really there. In June, Oculus unveiled https://www.techrepublic.com/article/oculus-defines-its-vr-journey-unveils-consumer-rift-vr-content-microsoft-partnership/ its Oculus Touch controllers ' the Half Moon prototype, and one of the features was haptics.",
        "Link": "https://www.techrepublic.com/article/mini-glossary-virtual-reality-terms-you-should-know/"
    },
    {
        "Object": "Presence",
        "Tag": ["term", "mental"],
        "Description": "If virtual reality strives to takes users and immerse them in new environments, presence is what's achieved when that happens. Plain and simple, users feel like they're there, wherever 'there' is.",
        "Link": "https://www.techrepublic.com/article/mini-glossary-virtual-reality-terms-you-should-know/"
    },
    {
        "Object": "Metaverse",
        "Tag": ["term", "usecase"],
        "Description": "There's not exactly a definitive definition. It's a bit prickly. Broadly, it's a bit of a philosophical underpinning of virtual reality; Forbes defines it as a 'collective virtual reality,' but there's plenty of debate about what that applies to and really, what exactly that is. A suggestion: check out Snowcrash by Neal Stephenson. It's a 1992 sci-fi that envisions a metaverse.",
        "Link": "https://www.techrepublic.com/article/mini-glossary-virtual-reality-terms-you-should-know/"
    },
    {
        "Object": "Social VR",
        "Tag": ["term", "usecase"],
        "Description": "This term refers to a type of app that aims to create a shared VR space where users can interact with each other and even participate in activities.",
        "Link": "https://www.techrepublic.com/article/mini-glossary-virtual-reality-terms-you-should-know/"
    },
    {
        "Object": "Cinematic VR",
        "Tag": ["term", "usecase", "360", "video"],
        "Description": "For the most part, there are two types of VR you'll run into. There's the kind that's computer-generated graphics, and the kind made of real images. The latter is cinematic VR, and is made using cameras, whether rigs made of mounted GoPros or actual 360 cameras.",
        "Link": "https://www.techrepublic.com/article/mini-glossary-virtual-reality-terms-you-should-know/"
    },
    {
        "Object": "360 video",
        "Tag": ["term", "usecase"],
        "Description": "There is a difference between virtual reality and 360-degree video. The latter is less immersive and typically keeps the viewer in a fixed point surrounded by roughly 360 degrees of video. This is what you're most likely to see if you're playing around with YouTube 360 or Google Cardboard apps. Purists will say that 360 video is not actually virtual reality.",
        "Link": "https://www.techrepublic.com/article/mini-glossary-virtual-reality-terms-you-should-know/"
    },
    {
        "Object": "Stitching",
        "Tag": ["term", "technical", "360", "demo"],
        "Description": "Stitching is the process of taking footage from different cameras, like GoPro cameras that have been used in a 360 camera mount, and combining that footage into spherical video. The process usually involves reorienting video, placing seams, and generally editing it so that it looks like one continuous view, rather than a patchwork of angles.",
        "Link": "https://www.techrepublic.com/article/mini-glossary-virtual-reality-terms-you-should-know/"
    },
    {
        "Object": "VR face",
        "Tag": ["term", "impairment", "physical"],
        "Description": "The slightly embarrassing, slack-jawed look people get on their face when they wear an HMD.",
        "Link": "https://www.techrepublic.com/article/mini-glossary-virtual-reality-terms-you-should-know/"
    },
    {
        "Object": "Oculus Rift",
        "Tag": ["hardware", "company", "hmd"],
        "Description": "Oculus https://www.oculus.com/ started off as a Kickstarter project. Facebook bought the company in 2014 for $2 billion. In the past several years, Oculus released two developer kits and demoed different prototypes. The consumer version of the Rift will start shipping in the spring of 2016. The Rift is considered high-end VR and requires a fairly souped up PC in order to run. Later in the year, Oculus will release its natively-built hand controllers, called Touch. Until then, units will ship with Xbox One wireless controllers.",
        "Link": "https://www.techrepublic.com/article/mini-glossary-virtual-reality-terms-you-should-know/"
    },
    {
        "Object": "HTC Vive",
        "Tag": ["hardware", "company", "hmd"],
        "Description": "The buzz has been that the Vive https://www.vive.com/ might be the Rift's best competition. The Vive is a partnership between hardware maker HTC, and video game maker Valve, powered by the SteamVR platform. It has two wireless hand controllers, and three sensors called lighthouses, to be placed in the room. What's cool about the Vive is that it provides a full room experience. Users can stand up and move around a set space as they interact with their games and apps. The Vive also requires a powerful PC to run. The Vive will start shipping in April 2016.",
        "Link": "https://www.techrepublic.com/article/mini-glossary-virtual-reality-terms-you-should-know/"
    },
    {
        "Object": "PSVR: Sony's PlayStation VR",
        "Tag": ["hardware", "company", "hmd"],
        "Description": "Formerly Project Morpheus, PlayStation VR https://www.playstation.com/en-au/explore/playstation-vr/ is compatible with PlayStation 4. PSVR is the only console-based VR system so far. It works with the DualShock PlayStation controllers, but users can also purchase handheld Move controllers. Movement is more limited than with the Vive. PSVR is considered the third of the trio of high-end VR systems (the other two being he Oculus and Vive). It's less immersive than the Oculus Rift or the Vive, but it is cheaper, and has the advantage of million units install base of PlayStation 4s already out in the wild. PSVR is shiped since November 2016.",
        "Link": "https://www.techrepublic.com/article/mini-glossary-virtual-reality-terms-you-should-know/"
    },
    {
        "Object": "Samsung Gear VR",
        "Tag": ["hardware", "company", "hmd"],
        "Description": "The GearVR http://www.samsung.com/us/explore/gear-vr/ is powered by Oculus, but differs in that its display is the screen of the Samsung Galaxy phones, as well as the Note 5. There have been three iterations. GearVR is compatible to many Samgsung phones since the Galaxy 7. The Samsung platform features a variety of games, game demos, 360 photos, 360 videos, and other VR experiences, both computer-generated and cinematic.",
        "Link": "https://www.techrepublic.com/article/mini-glossary-virtual-reality-terms-you-should-know/"
    },
    {
        "Object": "Google Cardboard",
        "Tag": ["hardware", "company", "hmd"],
        "Description": "Google introduced its cardboard holder in 2014 at its I/O conference. A user's smartphone fits into the front, and the user holds the unit up to his or her face. It does not contain sensors, which makes some VR purists dismiss it as too low quality, as it relies on the phone's accelerometer. On the other hand, the two facts that it's cheap and the newer version accommodates phones with screens up to 6 inches can potentially put VR in the hands of a very wide audience. There's also the Cardboard app. Users can find apps on the Google Play store. Cardboard units (as well as its knockoffs) can be customized and branded with company logos, meaning that they're being used as marketing tools. Google is reportedly working on a new headset that is made of plastic and has a few sensors.",
        "Link": "https://www.techrepublic.com/article/mini-glossary-virtual-reality-terms-you-should-know/"
    },
    {
        "Object": "Microsoft HoloLens AR HMD",
        "Tag": ["hardware", "company", "hmd", "ar"],
        "Description": "Microsoft HoloLens is the first self-contained, mobile Augmented-Reality-Headset enabling you to engage with your digital content and interact with holograms in the world around you. Holographic  ",
        "Link": "https://www.microsoft.com/en-us/hololens"
    },
    {
        "Object": "Magic Leap AR HMD",
        "Tag": ["hardware", "company", "hmd", "ar"],
        "Description": "Augmented-Reality-Headset started first to use waveguide optics but have in first product Magic Leap One have comparable optical hardware like the Microsoft HoloLens.",
        "Link": "https://www.magicleap.com/"
    },
    {
        "Object": "Leap Motion hand tracking",
        "Tag": ["hardware", "company", "tracking"],
        "Description": "Software and hardware platform based on monochromatic IR cameras and infrared LEDs for hand tracking in Immersive Media. The usb hardware is mounted on a HMD or already build in for 180°x180 tracking.",
        "Link": "https://www.leapmotion.com/"
    },
    {
        "Object": "MR: Mixed reality",
        "Tag": ["term", "abbreviation"],
        "Description": "Mixed reality (MR) is similar in definition to AR, however opposed to simply placing images and text over the top of RR this technology aims to create an environment in which the user will treat the objects as if they are really there. This can be seen with applications such as Skype and video viewing on Microsoft’s HoloLens, but also extends to 2D video wherein an observer is able to view a user of virtual reality (VR) within the environment that their head-mounted display (HMD) is showing to them. A user in a virtual space which entirely encompasses their vision viewed from the outside can still be defined as MR. Read more about on: https://en.wikipedia.org/wiki/Windows_Mixed_Reality",
        "Link": "https://www.vrfocus.com/2017/05/ar-vr-mr-rr-xr-a-glossary-to-the-acronyms-of-the-future/"
    },
    {
        "Object": "AR: Augmented reality",
        "Tag": ["term", "abbreviation"],
        "Description": "Technology which supplements real reality (RR) with computer generated imagery of any kind should be defined as augmented reality (AR). At present, this would include devices such as Google Glass, smartphones (through various applications), Nokia’s City Lens, and even Pokemon Go or Snapchat.",
        "Link": "https://www.vrfocus.com/2017/05/ar-vr-mr-rr-xr-a-glossary-to-the-acronyms-of-the-future/"
    },
    {
        "Object": "AR: Actual Reality",
        "Tag": ["fun", "term", "abbreviation"],
        "Description": "Development for this has been proven to be very slow and expensive, as opposed to developing it in/on a computer. However, the realism is second to none and it's a proven market having existed for several million years. (Though some dispute this, citing other documentation.)",
        "Link": "https://www.vrroom.buzz/vr-news/guide-vr/did-you-know-kr-nr-yr-or-zr-now-you-will"
    },
    {
        "Object": "BR: Break Reality",
        "Tag": ["fun", "term", "abbreviation"],
        "Description": "Not to be confused with a reality that does not work. BR is, just ever so slightly lower than the reality that proceeded it. Usually by a few millimetres. Can be stacked.",
        "Link": "https://www.vrroom.buzz/vr-news/guide-vr/did-you-know-kr-nr-yr-or-zr-now-you-will"
    },
    {
        "Object": "CR: Counter Reality",
        "Tag": ["fun", "term", "abbreviation"],
        "Description": "Immersion that takes the present reality and reverses it in some form. With three forms of this officially defined as existing in a 2D plane with CR-X (a flipping of the horizontal), CR-Y (a reversal of the vertical) and CR-Z also known as CR-XY, which involves flipping along the diagonal). Attempts to define other sub-sections stopped at CR-ZY.",
        "Link": "https://www.vrroom.buzz/vr-news/guide-vr/did-you-know-kr-nr-yr-or-zr-now-you-will"
    },
    {
        "Object": "DR: Doc're Reality",
        "Tag": ["fun", "term", "abbreviation"],
        "Description": "A reality expressly concerned with the medical profession and that which operates 'under the skin' of the real world.",
        "Link": "https://www.vrroom.buzz/vr-news/guide-vr/did-you-know-kr-nr-yr-or-zr-now-you-will"
    },
    {
        "Object": "ER: Emergency Reality",
        "Tag": ["fun", "term", "abbreviation"],
        "Description": "Same as above but for being developed in the Americas. Although in ER any app, program or managerial software undergoes regular drama and critical issues. Any programme you grow fond of will invariably have something catastrophic happen to it that may cause it to permanently leave the system save for flashback cameos.",
        "Link": "https://www.vrroom.buzz/vr-news/guide-vr/did-you-know-kr-nr-yr-or-zr-now-you-will"
    },
    {
        "Object": "FR: Réalité Française",
        "Tag": ["fun", "term", "abbreviation"],
        "Description": "Currently being promoted throughout Europe in the light of the ongoing Brexit negotiations, FR takes reality and just converts everything into French. C'est tout.",
        "Link": "https://www.vrroom.buzz/vr-news/guide-vr/did-you-know-kr-nr-yr-or-zr-now-you-will"
    },
    {
        "Object": "GR: Gigantes Reality",
        "Tag": ["fun", "term", "abbreviation"],
        "Description": "Applications using GR present virtual objects as real but at exactly 328% their usual size. Early reviews cite wonderous viewpoints not previously explored, although simple tasks such as opening doors in GR have proven difficult.",
        "Link": "https://www.vrroom.buzz/vr-news/guide-vr/did-you-know-kr-nr-yr-or-zr-now-you-will"
    },
    {
        "Object": "IR: Iridescent Reality",
        "Tag": ["fun", "term", "abbreviation"],
        "Description": "IR experiences produce a reality where everything you see varies in colour according to the exact angle you are viewing it. Still experimental, it is not recommended in conjunction with fast movement.",
        "Link": "https://www.vrroom.buzz/vr-news/guide-vr/did-you-know-kr-nr-yr-or-zr-now-you-will"
    },
    {
        "Object": "KR: Kaleidoscopical Reality",
        "Tag": ["fun", "term", "abbreviation"],
        "Description": "No, this is nothing to do with a children's toy. In KR, immersive experiences fundamentally alter their shape with every movement. Unfortunately, this means that in theory that one KR experience could become be any other KR experience. The technology is currently on hold, until legal guidance on how this affects copyrights is sought.",
        "Link": "https://www.vrroom.buzz/vr-news/guide-vr/did-you-know-kr-nr-yr-or-zr-now-you-will"
    },
    {
        "Object": "LR: Long Range Ruling Reality",
        "Tag": ["fun", "term", "abbreviation"],
        "Description": "Truncated abbreviation of Long Range Ruling Reality or 'LRRR', a future-based reality tech, set to conquer the world but with an expected development time of just under 1000 years according to predictions from the Omicron Persei 8 Foundation. Will probably destroy you.",
        "Link": "https://www.vrroom.buzz/vr-news/guide-vr/did-you-know-kr-nr-yr-or-zr-now-you-will"
    },
    {
        "Object": "MR: Mirror Reality",
        "Tag": ["fun", "term", "abbreviation"],
        "Description": "Owing to the present level of technology (at the time of writing) an imperfect reflection of what is expected in reality ' not to be confused with CR .MR applications and experiences tend to be ultimately disappointing and often involve shiny tops and sashes as well as the addition of a black goatee beard to everything.",
        "Link": "https://www.vrroom.buzz/vr-news/guide-vr/did-you-know-kr-nr-yr-or-zr-now-you-will"
    },
    {
        "Object": "NR: Non-Reality",
        "Tag": ["fun", "term", "abbreviation"],
        "Description": "Sometimes called 'Counter-Immersive Reality' ' again, not to be confused with CR. NR is a response to safety concerns and implications of VR and AR, and whether or not experiences can become so immersive as to appear as actual reality. All virtual objects within NR simulations are officially branded as 'not being real' with audible warnings declaring the objects to be not real and visible warning stickers. The stickers naturally all have warning stickers and full disclaimers themselves. As do those stickers ' and so on.",
        "Link": "https://www.vrroom.buzz/vr-news/guide-vr/did-you-know-kr-nr-yr-or-zr-now-you-will"
    },
    {
        "Object": "PR: Public Reality",
        "Tag": ["fun", "term", "abbreviation"],
        "Description": "A reality comprised of what is recommended as being best for you, as determined by marketing committee.",
        "Link": "https://www.vrroom.buzz/vr-news/guide-vr/did-you-know-kr-nr-yr-or-zr-now-you-will"
    },
    {
        "Object": "QR: Quick Reality",
        "Tag": ["fun", "term", "abbreviation"],
        "Description": "Another now rarely used iteration of immersive technology, which presents reality a series of squares filed, in turn, with other squares of black and white. Representations can be translated through a camera with correct software on it, however locating one is difficult owing to all such virtual cameras also being patterned squares within the QR space.",
        "Link": "https://www.vrroom.buzz/vr-news/guide-vr/did-you-know-kr-nr-yr-or-zr-now-you-will"
    },
    {
        "Object": "RR: Radiolucent Reality",
        "Tag": ["fun", "term", "abbreviation"],
        "Description": "Immersive experiences which are not affected by radiation in any way, meaning your enjoyment is not spoiled in the event of any kind of radioactive spill or nuclear fallout. As proved by the colossal amount of radiation you are subjected to by the experimental plutonium powered RR headset.",
        "Link": "https://www.vrroom.buzz/vr-news/guide-vr/did-you-know-kr-nr-yr-or-zr-now-you-will"
    },
    {
        "Object": "SR: Subjective Reality",
        "Tag": ["fun", "term", "abbreviation"],
        "Description": "A personally tailored reality that automatically is shaped to the will of the headset wearer, responding to their emotional state and biological responses.",
        "Link": "https://www.vrroom.buzz/vr-news/guide-vr/did-you-know-kr-nr-yr-or-zr-now-you-will"
    },
    {
        "Object": "TR: Taciturn Reality",
        "Tag": ["fun", "term", "abbreviation"],
        "Description": "An in-depth immersive experience that ultimately tells you nothing at all.",
        "Link": "https://www.vrroom.buzz/vr-news/guide-vr/did-you-know-kr-nr-yr-or-zr-now-you-will"
    },
    {
        "Object": "VR: Versatile Reality",
        "Tag": ["fun", "term", "abbreviation"],
        "Description": "Immersive technology that creates a representation over the real world which is malleable. Of course, the reality underneath that is still solid, so finding a use for this has so far been troublesome, despite its name.",
        "Link": "https://www.vrroom.buzz/vr-news/guide-vr/did-you-know-kr-nr-yr-or-zr-now-you-will"
    },
    {
        "Object": "WR: aka 'Guinness Reality'",
        "Tag": ["fun", "term", "abbreviation"],
        "Description": "A somewhat quirky implementation of immersive reality, WR operates as in true reality except values within it are dictated solely by the 'best' defined value from the real world. So whilst free-movement is supported people can only be stationary or move as fast as the fastest person alive with no middle ground. In the same way as a car can either be at 0 miles per hour (mph) or around 270 mph, the approximate speed of the fastest car in the world. Constantly being updated experiences become better/worse, depending upon your point of view, as values change in reality.",
        "Link": "https://www.vrroom.buzz/vr-news/guide-vr/did-you-know-kr-nr-yr-or-zr-now-you-will"
    },
    {
        "Object": "XR: XTREME Reality",
        "Tag": ["fun", "term", "abbreviation"],
        "Description": "Immersive technology that turns everything into a representation of the 1990's. Signs seem to entirely consist of incorrectly spelt words, often remaining in motion on a background made up of a series of random neon coloured shapes stuck on a rectangle of another colour. Most characters in current XR videogames seem to sport bucket hats, denim dungarees and trainers with flashing lights in them. Hard Rock Cafe XR is particularly popular, which is to say that it is 'radical'.",
        "Link": "https://www.vrroom.buzz/vr-news/guide-vr/did-you-know-kr-nr-yr-or-zr-now-you-will"
    },
    {
        "Object": "YR",
        "Tag": ["fun", "term", "abbreviation"],
        "Description": "Endlessly argued over, YR is a reality constantly in a developmental state as people debate whether it should even exist in the first place. Forums have threads entirely devoted to trying to get the platform out of the loop it finds itself in. Hence the slogan 'YR' Indeed.'",
        "Link": "https://www.vrroom.buzz/vr-news/guide-vr/did-you-know-kr-nr-yr-or-zr-now-you-will"
    },
    {
        "Object": "ZR",
        "Tag": ["fun", "term", "abbreviation"],
        "Description": "Zero Reality: ZR experiences express all objects as other objects, never what it in fact is. So, a banana could be anything, at least in theory, except for a banana. There is a standard rulebook for ZR, indicating what item is supplanted by what. However, it is believed that Microsoft are making up their own non-standard version. Also known as 'Illusion Reality' owing to the fact that 'nothing is as it seems'.",
        "Link": "https://www.vrroom.buzz/vr-news/guide-vr/did-you-know-kr-nr-yr-or-zr-now-you-will"
    },
    {
        "Object": "vrroom.buzz Guides",
        "Tag": ["portal", "guide"],
        "Description": "Webportal having all kind of XR related articles like news, games, guides, tutorials, ...",
        "Link": "https://www.vrroom.buzz/category/guide-vr"
    },
    {
        "Object": "Find A VR Centre Near You",
        "Tag": ["experiance", "public", "portal", "map", "demo"],
        "Description": "Public VR, experiance locations worldwide by vrroom.buzz",
        "Link": "https://www.vrroom.buzz/vr-news/son-image/find-vr-centre-near-you"
    }
]