<svg id="metavrse" xmlns="http://www.w3.org/2000/svg" viewBox="0 0 813.3 176.6">
  <defs>
    <style>
      .cls-4{fill:none;stroke-linejoin:round;stroke:#cd3333}.cls-3{fill:#cd3333}.cls-4{stroke-width:4px}
    </style>
  </defs>
  <path d="M170.8 123.8c-2.7 5.2-56.9 37.3-78.8 50.4-28.5-21.1-59-38.9-88.4-56.6-2-24.3-1.1-77.7-.1-79.3s20-12.3 30.9-15.9C50.6 17.1 85.5 2.5 87.2 2.5s58.4 20.8 86.8 27.6c.4 4.7-1.3 89.9-3.2 93.7z" stroke-width="5" stroke="#cd3333" fill="none" stroke-linejoin="round" id="outline"/>
  <g id="block">
    <path d="M88 135.2c-9.7-5.2-27.9-13.8-27.8-15s-.1-13.9.7-20.3c5.1 2.9 23.5 11 27.3 11.9.5.2-.2 22.4-.2 23.4zm6.4-.5c.2-10.3.9-12.1.4-22.3 6.2-2.8 19.8-11.9 21.7-12.8.4 2.8-.5 21.6-.5 21.6s-21 13.4-21.6 13.5zm45.4-91.4c-8.2-1.9-23.1-6.2-25.2-5.4-.5.2-12.4 4.5-17.4 7.4 4.5 1.6 22.2 11 22.6 10.8s19.3-12.3 20-12.8zm4.5 4.7c-7.4 5.7-13.4 8.2-21.2 13.4-.8 6.2-.4 24-.5 25.1 2.6-.6 20.5-12.9 20.6-13.2s1.1-24.2 1.1-25.3zm-.9 32.9c-7.4 5.7-13 9-20.8 14.2-.8 6.2-.2 21.1-.3 22.3 2.6-.6 19-12.4 19.1-12.6s2-22.6 2-23.9zM40.1 45.7c8.7-3.4 20.3-8.3 22.7-8.3s15.4 5.4 20.1 7.1c-4.8 1.7-23.4 11.9-23.8 11.8s-18.3-10-19-10.6zM73.8 35c1.8-.6 14-4.7 16.1-4.7s10.7 3.2 15.9 4.6c-4.2 1.5-14.4 6.4-14.8 6.2S74.8 35.5 73.8 35zM35.9 51.3c3.3 2.3 11.2 5.2 19 10.4.5 2.9-.1 23.4-.4 25.5-2.6-.6-19.7-12.9-19.9-13s.9-21.6 1.3-22.9zM35.2 82c7.4 5.7 10.8 7.8 18.6 13 .5 2.9-.3 19-.3 20.5-2.6-.6-17.8-12.2-18.1-12.2s-.5-19.1-.2-21.3z" stroke-width="4" stroke-miterlimit="10" fill="#cd3333" stroke="#cd3333"/>
    <path class="cls-3" d="M343.7 282.1c8.8 5.6 7.3 9.8-3.1 12.7-22.7 6.3-13.2-6.3-14.7-12.7s10.5-71.2-25.5-37.4c-21.5 20.1 14.5 50.1-14.2 50.1s2.1-22.6-7.6-43.3c-6.8-14.5-19.2-20.4-31.9-2-6.4 9.2-1.7 21.9-3 32.7-.1.7 11.5 6.3 1.2 12.7-18.7 11.4-19-6.5-20.4-12.7-.7-2.8 5.5-32.6 4.2-44 .1.9-17.6-2.9-8.3-13.3 5.7-6.3 24.5-1.9 23.4 8.1 13.8-10 37.9-17.3 46.8 2.5 45.4-38.4 53 12.8 53.1 46.6z" transform="translate(-13.6 -182.6)"/>
    <path class="cls-3" d="M385.7 282c11.5 0 21.9-6.3 34.5-5-19.7 36.5-80.5 18.1-71.9-24.6s73.7-36.7 76.3 7.2l-60.5 8.7q6.6 13.3 21.6 13.7zm0-44.7q-16.2.6-22.3 15.5l41.4-6a23.5 23.5 0 0 0-19.1-9.5z" transform="translate(-13.6 -182.6)"/>
    <path class="cls-3" d="M443.4 236.8c-4.7.6-2.6 25.3 0 36.6s13.8 5.3 9.5 21.9c-33.7-.9-20.5-32.4-24.7-53.2-1.7-8.3-8.2-4.1-8.1-9.8.1-13.5 6.3-5.1 8.1-11.6s-2.8-16.8 2-20.4c12.7-9.5 15 7.4 14.6 10.7-1.9 15.3 2.3 14.2 9.1 14.5s-1 13-10.5 11.3z" transform="translate(-13.6 -182.6)"/>
    <path class="cls-3" d="M528.9 238.1c-13.3 4-1.8 35.5-2.6 42.9 0 .1 5.6 9.7 1 13.2-7.7 5.8-17.7-.2-18.7-5.7-73.1 56.3-73-114.4 0-58.2 1.7-11.6 23.9-9.6 20.3 7.8zm-43.1 43.1c29.1 0 29.1-43.6 0-43.6s-29.1 43.6-.1 43.6zm116.7-95.6c13 6.9 24.9 16.4 26 24.5 2.9 7.3-12.6 24.9-18.8 36.6-10.3 18.2-23 40.4-30.5 48.9s-12 3.8-28.5-26.9c-11.8-22.6-21.7-46.6-25.6-61.2-.5-1.6-5.9-2.9-6.9-4.3s2-3.3 11.7-11.4c13.2-12.3 17.7 2.5 25 22.8s15.6 46.7 19.3 60.5c13.1-32.9 34.1-66.6 28.3-89.5zm84.9 109.9c13.5-2.7 12.9.3 7.7 6.1s-15.5 13.4-25.1 7.8c-12.1-7.3-26.4-38.4-38.1-48.3-2.5 7.9 15.3 68.9-23.5 19.4-3.9-4.5-4.4-7.5-1.6-13.7s8.2-14.3 8.5-17 18.9-32.6 22.2-37.8c8.7-10.5 14-10.9 21.8-6.9s17 12.6 24.3 21.4 12 18.2 8.4 25.2-14.7 11.8-31.4 12.5c9.9 11.2 20 22.8 26.8 31.3zm-48.8-71.8c-2.6 11.3-10.2 36.5 22.6 23.3 15.2-6.5 12.4-14 5.4-19.2s-18.7-8.1-28-4.1z" transform="translate(-13.6 -182.6)"/>
    <path class="cls-3" d="M745.2 273.9c4 45-72.4 11.5-41.8 1.5 4.4-1.4 23.9 18.2 26.8-.6 2-13.3-35.4-13.8-32.6-36.2 4.9-38.8 62.1-6.2 42.7 3.1-5.1 2.4-23.4-14.4-26.6-4.7-5.1 15.4 29.8 17.5 31.6 36.8z" transform="translate(-13.6 -182.6)"/>
    <path class="cls-3" d="M786.9 281.6c11.8 0 22.5-6.4 35.4-5.1-20.2 37.5-82.7 18.6-73.8-25.3s75.7-37.7 78.4 7.4l-62.1 8.9q6.8 13.7 22.1 14.1zm0-45.9q-16.6.6-22.9 15.9l42.5-6.2a24.2 24.2 0 0 0-19.6-9.7z" transform="translate(-13.6 -182.6)"/>
  </g>
  <g id="core">
    <path class="cls-4" d="M104.5 258.5c-1.2-.6-17.8-7.7-28.3-13a.7.7 0 0 0-1 .7c-.1 5.2-1 25.7-.1 27.3s26.5 13.1 29.7 14.1c.2-2.4-.4-21.4-.3-29.1z" transform="translate(-13.6 -182.6)"/>
    <path class="cls-4" d="M130.9 244.6c-10.2-4-25-12.4-27.8-12.4s-21.3 9.4-27.2 13.2c5.4 3.9 26.3 11.4 28.5 12.8.5.4 25.6-12.9 26.5-13.6z" transform="translate(-13.6 -182.6)"/>
    <path class="cls-4" d="M130.9 244.6c-8.7 6.6-17 7.2-26.1 13.3.4 7.2.2 26.5.5 29.8 3.1-.7 23.3-13.7 24.6-14.8s1.3-27.8 1-28.3z" transform="translate(-13.6 -182.6)"/>
  </g>
</svg>
